<svg width="256" height="256" viewBox="0 0 256 256" fill="none" xmlns="http://www.w3.org/2000/svg">
<circle cx="128" cy="128" r="125" fill="white"/>
<path d="M117.926 0.0660558C118.524 0.00305575 123.718 -0.0289442 129.416 0.0340558C136.878 0.0970558 140.908 0.254056 143.678 0.632056C169.305 4.06406 191.468 13.7601 210.956 30.0671C214.608 33.0901 222.92 41.4011 225.942 45.0521C242.313 64.6021 251.884 86.5451 255.41 112.517C256.197 118.277 256.197 137.733 255.41 143.494C251.884 169.466 242.313 191.408 225.942 210.958C222.92 214.61 214.608 222.921 210.956 225.943C191.406 242.313 169.462 251.883 143.489 255.41C137.729 256.197 118.272 256.197 112.511 255.41C86.538 251.884 64.594 242.314 45.044 225.943C41.392 222.921 33.08 214.61 30.058 210.958C13.687 191.408 4.11601 169.466 0.590006 143.494C-0.196994 137.733 -0.196994 118.278 0.590006 112.517C4.11601 86.5451 13.687 64.6021 30.058 45.0521C33.08 41.4011 41.392 33.0901 45.044 30.0671C64.814 13.5081 89.056 3.08806 113.675 0.507056C115.407 0.349056 117.327 0.129056 117.925 0.0660558H117.926ZM125.009 92.5891C118.524 91.6131 109.961 91.7391 103.916 92.8721C84.932 96.4621 66.42 106.692 57.448 118.498C55.433 121.142 53.229 125.676 52.442 128.792C51.718 131.626 51.56 136.662 52.127 139.182C53.167 143.84 56.661 147.776 62.359 150.735C67.302 153.285 73.22 155.52 76.526 156.118C82.602 157.22 91.354 157.566 96.99 156.968C105.144 156.118 119.28 152.308 126.331 149.066C127.811 148.406 129.417 147.839 129.951 147.839C133.037 147.839 135.461 151.176 134.108 153.505C133.352 154.733 128.409 157.22 122.711 159.203C119.594 160.273 118.871 160.62 119.027 161.029C119.783 162.918 121.137 171.481 121.829 178.533C123.057 190.81 123.246 212.942 122.302 230.477C122.112 234.097 121.924 238.725 121.924 240.708L121.861 244.328L129.417 244.297C139.806 244.265 146.607 243.447 157.121 240.865C165.716 238.756 172.233 236.49 179.001 233.215C183.881 230.855 183.472 231.61 183.126 226.069C182.936 223.456 182.716 219.206 182.622 216.625C182.276 207.715 180.67 185.962 179.442 173.968C176.735 147.208 174.594 137.229 169.085 125.959C165.307 118.215 161.277 112.737 154.729 106.472C150.321 102.254 148.432 100.837 144.465 98.7911C138.326 95.6431 132.125 93.6591 125.009 92.5891V92.5891ZM79.58 222.827C78.353 222.701 78.385 222.449 79.046 228.934C79.423 232.523 79.676 233.719 80.053 234.003C81.343 234.978 81.438 234.633 81.218 229.91C81.092 227.454 80.903 224.873 80.808 224.18C80.62 223.047 80.494 222.921 79.581 222.827H79.58ZM64.973 202.616C64.28 202.616 64.249 203.246 64.847 208.755C65.099 210.99 65.382 214.327 65.508 216.153C65.634 217.979 65.918 220.938 66.138 222.763C66.39 224.558 66.516 226.133 66.453 226.258C66.295 226.447 67.019 227.171 67.838 227.643C68.373 227.958 68.278 226.321 67.082 214.263C66.673 209.856 66.295 205.606 66.295 204.788C66.295 204.001 66.138 203.214 65.917 202.994C65.697 202.774 65.287 202.616 64.973 202.616V202.616ZM192.855 184.734C192.572 184.703 192.257 184.766 192.131 184.892C191.879 185.112 192.194 224.999 192.414 225.251C192.509 225.345 192.792 225.125 193.107 224.779C193.611 224.212 193.642 222.795 193.485 204.505C193.359 187.065 193.265 184.829 192.855 184.735V184.734ZM89.635 190.339H88.553L88.773 192.919C89.623 203.686 90.316 210.675 90.537 210.895C90.663 211.053 91.104 211.085 91.481 210.958C92.174 210.738 92.174 210.644 91.985 207.684C91.67 203.277 90.883 193.927 90.663 191.975C90.505 190.401 90.443 190.338 89.529 190.338L89.635 190.339ZM40.92 170.473C40.606 169.938 39.85 170.19 39.85 170.851C39.85 171.229 40.322 175.227 40.92 179.761C41.96 187.757 43.313 200.821 43.313 202.805C43.313 203.529 43.533 203.938 44.132 204.347L44.919 204.851L44.761 203.497C44.667 202.742 44.226 198.744 43.785 194.588C42.305 180.831 41.109 170.757 40.92 170.473V170.473ZM222.606 170.505C222.48 170.505 221.85 171.04 221.221 171.67L220.056 172.866L219.993 186.371C219.898 201.105 219.804 200.601 221.598 197.957L222.386 196.792L222.606 183.632C222.7 176.423 222.7 170.505 222.606 170.505V170.505ZM100.108 164.429C99.95 163.957 99.038 163.674 98.691 164.051C98.596 164.114 98.785 166.979 99.069 170.411C99.383 173.842 99.856 179.697 100.108 183.412C100.8 192.384 100.863 192.857 101.461 192.857C101.996 192.857 101.965 191.251 101.083 178.533C100.832 175.07 100.548 170.599 100.453 168.616C100.328 166.633 100.17 164.744 100.108 164.429ZM27.099 137.67C26.879 135.907 26.595 135.592 25.745 136.159C25.335 136.411 25.305 136.19 30.215 170.127C30.971 175.385 31.695 179.76 31.789 179.855C32.545 180.642 32.419 178.785 30.719 165.783C29.586 157.377 27.382 140.252 27.099 137.67V137.67ZM234.411 110.376C234.199 110.376 234.104 113.689 234.096 120.315V121.142C234.065 127.092 234.002 133.924 233.939 136.348C233.876 138.772 233.719 149.192 233.655 159.487C233.466 180.075 233.372 179.131 235.324 174.44C236.52 171.575 236.552 170.6 236.804 137.387L237.024 111.32L235.891 110.848C235.261 110.596 234.6 110.376 234.411 110.376V110.376ZM73.945 163.579C73.095 163.579 73.095 163.516 73.535 169.151C73.952 174.384 73.947 174.591 75.059 174.597H75.333C76.555 174.612 76.486 174.962 76.023 168.931C75.739 165.531 75.519 164.271 75.173 163.957C74.889 163.768 74.353 163.579 73.945 163.579V163.579ZM47.373 148.94L47.563 150.514C47.65 151.306 47.956 154.171 48.278 157.078L48.349 157.724C48.664 160.809 49.073 163.484 49.231 163.642C49.734 164.146 50.868 163.327 50.868 162.446C50.868 161.406 49.955 152.876 49.766 152.088C49.672 151.742 49.105 150.892 48.476 150.2L47.373 148.94ZM29.333 66.0501C29.145 65.8611 27.287 68.8201 27.067 69.6701C26.973 70.0801 27.319 73.8901 27.886 78.1701C28.421 82.4841 29.271 89.1581 29.775 93.0611C30.278 96.9651 31.191 104.048 31.821 108.801C32.419 113.555 33.269 120.135 33.71 123.441C35.82 139.842 36.764 147.146 37.33 151.459C37.677 154.04 37.96 156.433 37.96 156.716C37.96 157.377 38.275 157.44 39.03 156.874C39.534 156.496 39.534 156.244 39.093 152.561C38.842 150.388 38.401 146.579 38.149 144.061C37.866 141.542 36.386 128.1 34.812 114.154C33.238 100.207 31.412 83.7111 30.719 77.5101C30.026 71.2761 29.397 66.1451 29.334 66.0501H29.333ZM205.384 40.0781L205.573 44.6121C205.667 47.0991 205.825 67.6241 205.951 90.2281C206.108 127.533 206.171 131.342 206.643 131.688C206.927 131.909 207.399 132.098 207.745 132.098C208.312 132.098 208.312 130.965 208.217 87.3001C208.123 49.2701 208.06 42.3771 207.682 41.9361C207.43 41.6521 206.832 41.1171 206.297 40.7391L205.384 40.0781ZM46.177 115.917C46.083 115.854 45.516 116.105 44.981 116.483C43.784 117.239 43.784 117.459 44.382 122.496L44.76 125.644L45.768 123.504C46.681 121.489 46.744 121.237 46.555 118.687C46.46 117.239 46.271 115.98 46.177 115.917V115.917ZM19.984 84.2471C19.889 84.2471 19.48 85.1911 19.102 86.3561L18.378 88.4961L20.613 103.922C21.873 112.391 23.037 120.482 23.226 121.867C23.416 123.252 23.667 124.511 23.793 124.637C23.919 124.763 24.297 124.637 24.674 124.322L25.336 123.755L24.737 119.348C24.391 116.924 23.635 111.1 23.037 106.441C22.439 101.75 21.557 94.8561 21.085 91.0781C20.582 87.3321 20.109 84.2471 19.984 84.2471V84.2471ZM220.559 93.0611C220.369 93.0611 220.244 98.6651 220.244 108.613V109.947C220.248 122.607 220.321 124.201 220.747 124.354C221.44 124.605 223.077 124.574 223.109 124.291C223.266 123.472 223.455 103.828 223.392 95.2331C223.392 94.1631 223.266 94.0371 222.132 93.5651C221.44 93.2821 220.716 93.0611 220.559 93.0611V93.0611ZM192.445 86.451H191.437L191.532 102.726C191.654 120.071 191.628 120.146 193.379 120.136H194.428V103.33C194.427 89.3041 194.36 87.3901 193.924 86.9541C193.672 86.6711 192.98 86.4501 192.444 86.4501L192.445 86.451ZM90.914 110.69C93.81 108.927 97.777 111.256 97.777 114.72C97.777 118.308 93.904 120.67 90.914 118.875C87.891 117.017 87.891 112.547 90.914 110.69ZM69.568 107.668C73.409 105.999 76.998 110.155 74.795 113.743C73.63 115.695 71.363 116.23 69.128 115.097C66.042 113.523 66.294 109.084 69.568 107.667V107.668ZM53.103 62.0841C52.883 61.5171 52.757 61.5491 51.655 62.5871L50.427 63.7211L51.309 72.7871C51.781 77.7931 52.725 87.2061 53.386 93.6911C54.048 100.176 54.677 106.598 54.803 107.983L55.023 110.47L56.22 109.243L57.448 108.015L56.378 96.3671C55.779 89.9451 54.866 79.7451 54.299 73.7001C53.764 67.6241 53.229 62.3991 53.103 62.0841ZM177.428 47.7281V101.278L178.561 101.75C179.191 102.002 179.757 102.16 179.821 102.096C179.978 101.97 179.946 59.3131 179.789 52.3561C179.757 50.3101 179.599 48.5161 179.442 48.3891C179.285 48.2321 178.782 48.0431 178.309 47.9171L177.428 47.7281ZM119.5 11.2101L118.65 11.2421C118.146 11.2731 117.359 11.3681 116.887 11.4311L116.005 11.5561L116.195 18.5461C116.383 24.9041 118.24 68.3801 118.807 79.5871C118.933 82.1371 119.153 84.3091 119.247 84.4351C119.374 84.5301 120.097 84.7191 120.885 84.7821L122.302 84.9391L122.144 82.6411C121.987 80.3431 120.948 54.5601 120.602 44.7381C120.461 40.8016 120.293 36.8662 120.098 32.9321C119.752 25.3451 119.5 17.3491 119.5 13.6661V11.2101ZM39.755 51.9471C39.44 51.6011 37.015 54.7801 37.015 55.5361C37.015 56.7951 40.164 84.6561 40.321 84.8131C40.573 85.0651 42.997 83.8691 42.997 83.4911C42.997 83.3021 42.557 78.895 42.021 73.701C41.5206 68.5264 41.0066 63.353 40.479 58.1811C40.164 54.8111 39.849 52.0101 39.755 51.9471V51.9471ZM76.809 23.4571C76.589 23.0471 76.022 23.1421 75.015 23.6771C74.196 24.1171 74.165 24.2431 74.322 25.6291C74.417 26.4471 75.046 33.9711 75.739 42.3771C76.935 56.6691 78.635 76.4391 79.076 80.5321C79.171 81.5391 79.36 82.3581 79.454 82.3581C79.58 82.3581 80.147 82.0741 80.714 81.7281C81.721 81.0981 81.752 81.0351 81.594 79.4301C81.5 78.5481 80.902 71.4971 80.304 63.7841C78.478 41.0861 76.998 23.7401 76.809 23.4561V23.4571ZM162.316 60.9501H161.592L161.781 67.9401C161.907 71.8111 162.001 76.1871 162.001 77.6981V80.4061L162.977 80.7521C164.677 81.3501 165.023 80.8781 164.96 78.0451C164.96 76.6911 164.897 72.5351 164.866 68.8211L164.834 62.0211L163.921 61.4861C163.418 61.2021 162.694 60.9501 162.316 60.9501ZM92.016 48.7041C91.26 48.7671 89.623 49.3341 89.466 49.5541C89.308 49.8061 90.41 65.2941 90.725 67.1521C90.851 68.0971 90.977 68.1921 91.921 68.1921C93.716 68.1921 93.779 67.8451 93.401 62.3041C93.211 59.5651 92.991 56.0391 92.897 54.4971C92.8108 53.0466 92.6955 51.5979 92.551 50.1521C92.456 49.3341 92.204 48.6721 92.015 48.7041H92.016ZM131.778 39.1341V41.4641C131.778 43.7301 132.722 67.0581 132.817 67.1211C132.848 67.1521 133.541 67.2471 134.391 67.3411L135.871 67.5611L135.839 62.9021C135.808 55.1581 135.367 39.8901 135.178 39.7011C135.084 39.6061 134.296 39.4491 133.384 39.3231L131.778 39.1341ZM105.332 30.9361C105.326 29.7841 105.252 29.7861 104.325 29.8161C103.758 29.8161 102.877 29.9731 102.373 30.1621C101.523 30.4771 101.492 30.5401 101.681 32.1141C101.77 32.9461 102.056 36.6711 102.299 40.5831L102.342 41.2751C102.594 45.4301 102.972 50.8761 103.129 53.3951C103.318 55.9131 103.475 58.6521 103.539 59.5341C103.601 61.1081 103.601 61.1081 104.64 61.0761C106.75 60.9501 106.686 61.1391 106.466 55.6621C106.34 52.9541 106.056 46.6891 105.805 41.7471C105.553 36.8041 105.333 32.1141 105.333 31.2641L105.332 30.9361ZM147.928 12.5321C146.606 12.3121 146.26 12.3431 146.134 12.6901C145.945 13.1621 146.165 32.0821 146.417 37.6541C146.48 39.4801 146.637 45.0841 146.764 50.1521L146.984 59.3131L148.432 59.4391C149.219 59.5341 150.006 59.5341 150.132 59.4391C150.29 59.3761 150.322 58.3691 150.227 57.2041C150.132 56.0711 149.975 45.6511 149.849 34.0341C149.754 22.4491 149.659 12.9421 149.629 12.9101C149.597 12.8791 148.841 12.7211 147.929 12.5321H147.928ZM192.665 35.5771C191.375 35.0411 191.375 35.0411 191.248 35.5141C191.185 35.7341 191.154 40.6141 191.217 46.3741L191.311 56.8261L192.634 57.4561L193.956 58.1171L194.05 51.2541C194.113 47.5081 194.05 42.5341 193.956 40.2361L193.736 36.0171L192.665 35.5771ZM163.481 29.7841C161.327 29.0561 161.365 28.4741 161.371 37.5821V38.9991C161.376 43.9271 161.468 48.2091 161.561 48.5791C161.718 49.1761 163.607 50.2471 164.52 50.2471C164.866 50.2471 164.96 35.1991 164.646 32.0511C164.456 30.2561 164.362 30.0991 163.481 29.7841V29.7841Z" fill="#222222"/>
</svg>
